<svg width="15" height="16" viewBox="0 0 15 16" fill="none" xmlns="http://www.w3.org/2000/svg">
<path fill-rule="evenodd" clip-rule="evenodd" d="M6.66614 4.96358C6.3453 4.9635 6.03256 4.86901 5.76748 4.69327C5.50229 4.51747 5.29728 4.2687 5.17664 3.97972C5.05605 3.69086 5.02466 3.37363 5.08594 3.06769C5.14724 2.76168 5.29886 2.47907 5.52338 2.2562C5.74802 2.03321 6.03558 1.88013 6.35026 1.81802C6.665 1.75589 6.99111 1.78792 7.28689 1.90958C7.58256 2.03121 7.83348 2.2364 8.00915 2.4975C8.18458 2.75823 8.27755 3.06353 8.27763 3.37492C8.27681 3.79241 8.10947 4.19484 7.80863 4.49346C7.50742 4.79246 7.09682 4.96275 6.66614 4.96358ZM9.25368 1.66016C9.59547 2.16816 9.77781 2.76535 9.77763 3.37622C9.77646 4.19468 9.4484 4.97929 8.86537 5.55803C8.28235 6.13677 7.49193 6.46242 6.66741 6.46358C6.05202 6.46375 5.4504 6.28276 4.93864 5.94349C4.42689 5.60421 4.02799 5.1219 3.79241 4.55757C3.55683 3.99323 3.49514 3.37222 3.61516 2.77308C3.73517 2.17393 4.03149 1.62358 4.46664 1.19163C4.90179 0.759684 5.45622 0.465539 6.0598 0.346407C6.66337 0.227275 7.28899 0.288507 7.8575 0.522357C8.42602 0.756207 8.9119 1.15217 9.25368 1.66016Z" fill="#CED5DC"/>
<path fill-rule="evenodd" clip-rule="evenodd" d="M7.33066 8.26375C7.11095 8.24036 6.8894 8.22852 6.66677 8.22852C4.98241 8.22852 3.36013 8.9067 2.12436 10.1274C0.888584 11.3482 0.130418 13.0215 0.00147798 14.8127C-0.00326678 14.8724 0.00344087 14.9325 0.0211919 14.9893C0.0389428 15.0461 0.0673645 15.0984 0.10472 15.1431C0.143461 15.1876 0.190428 15.2232 0.242665 15.2474C0.294902 15.2717 0.351278 15.2841 0.408251 15.284H7.30815C6.93734 14.8376 6.63609 14.3322 6.42085 13.784H1.68896C1.95612 12.7894 2.47183 11.8926 3.17851 11.1946C4.08698 10.2971 5.24592 9.78992 6.44357 9.73375C6.66154 9.19651 6.96249 8.7013 7.33066 8.26375Z" fill="#CED5DC"/>
<path d="M12.7362 11.1702C12.7819 11.1249 12.8075 11.0635 12.8075 10.9994C12.8075 10.9353 12.7819 10.8739 12.7362 10.8286C12.6906 10.7833 12.6287 10.7578 12.5642 10.7578C12.4996 10.7578 12.4377 10.7833 12.3921 10.8286L11.1058 12.1058L10.5487 11.5524C10.5031 11.5071 10.4412 11.4816 10.3767 11.4816C10.3121 11.4816 10.2502 11.5071 10.2046 11.5524C10.1589 11.5977 10.1333 11.6591 10.1333 11.7232C10.1333 11.7873 10.1589 11.8487 10.2046 11.894L10.9337 12.6178C10.9563 12.6403 10.9831 12.6581 11.0127 12.6703C11.0422 12.6824 11.0739 12.6887 11.1058 12.6887C11.1378 12.6887 11.1695 12.6824 11.199 12.6703C11.2285 12.6581 11.2553 12.6403 11.2779 12.6178L12.7362 11.1702Z" fill="#CED5DC"/>
<path fill-rule="evenodd" clip-rule="evenodd" d="M11.5852 14.4121C13.0457 14.4121 14.2297 13.2369 14.2297 11.7871C14.2297 10.3374 13.0457 9.16211 11.5852 9.16211C10.1248 9.16211 8.94081 10.3374 8.94081 11.7871C8.94081 13.2369 10.1248 14.4121 11.5852 14.4121ZM11.5852 15.2871C13.5326 15.2871 15.1112 13.7201 15.1112 11.7871C15.1112 9.85411 13.5326 8.28711 11.5852 8.28711C9.63793 8.28711 8.05933 9.85411 8.05933 11.7871C8.05933 13.7201 9.63793 15.2871 11.5852 15.2871Z" fill="#CED5DC"/>
</svg>
