<svg width="14" height="15" viewBox="0 0 14 15" fill="none" xmlns="http://www.w3.org/2000/svg">
<path fill-rule="evenodd" clip-rule="evenodd" d="M10.9131 8.56915C10.9259 8.51035 10.9327 8.44946 10.9327 8.38711V8.11801C11.2571 7.99073 11.5617 7.82255 11.8382 7.61806L12.0908 7.75576C12.5316 7.99426 13.1405 7.84036 13.395 7.42681L13.8721 6.64876C13.9987 6.44207 14.033 6.1965 13.9675 5.96599C13.9021 5.73548 13.7422 5.53887 13.523 5.41936L13.2818 5.28796C13.3331 4.95611 13.3331 4.61901 13.2818 4.28716L13.523 4.15576C13.7421 4.03616 13.9019 3.83956 13.9673 3.60908C14.0328 3.3786 13.9985 3.13307 13.8721 2.92636L13.395 2.14831C13.1414 1.73431 12.5316 1.57906 12.0908 1.81891L11.8382 1.95661C11.5619 1.75182 11.2572 1.58347 10.9327 1.45621V1.18711C10.9327 0.690759 10.5043 0.287109 9.97756 0.287109H9.02244C8.49568 0.287109 8.06731 0.690759 8.06731 1.18711V1.45621C7.74287 1.58349 7.43827 1.75167 7.16185 1.95616L6.90922 1.81846C6.46795 1.57951 5.85858 1.73431 5.60499 2.14786L5.12791 2.92591C5.00527 3.12618 4.96924 3.36296 5.02667 3.58717C5.5836 3.58964 6.13232 3.66952 6.6584 3.82083C6.61711 3.75812 6.55985 3.70563 6.49135 3.66841L5.95505 3.37591L6.43165 2.59786L6.97846 2.89576C7.06764 2.94438 7.17114 2.96444 7.27344 2.95291C7.37574 2.94139 7.47131 2.89892 7.54581 2.83186C7.86889 2.54231 8.25849 2.32688 8.68432 2.20231C8.78214 2.17417 8.86778 2.11718 8.92865 2.03974C8.98952 1.96229 9.02239 1.86848 9.02244 1.77211V1.18711H9.97756V1.77211C9.97761 1.86848 10.0105 1.96229 10.0713 2.03974C10.1322 2.11718 10.2179 2.17417 10.3157 2.20231C10.7414 2.32705 11.131 2.54246 11.4542 2.83186C11.5288 2.89879 11.6243 2.94117 11.7266 2.95269C11.8288 2.96421 11.9323 2.94424 12.0215 2.89576L12.5679 2.59831L13.0454 3.37636L12.5087 3.66841C12.4189 3.71729 12.3484 3.79238 12.3079 3.88233C12.2674 3.97228 12.2591 4.07221 12.2842 4.16701C12.3377 4.37041 12.3654 4.57921 12.3654 4.78711C12.3654 4.99456 12.3377 5.20336 12.2837 5.40721C12.2587 5.50206 12.267 5.60202 12.3076 5.69198C12.3482 5.78194 12.4188 5.857 12.5087 5.90581L13.045 6.19786L12.5683 6.97591L12.0215 6.67846C11.9324 6.62976 11.8289 6.60967 11.7265 6.62119C11.6242 6.63272 11.5286 6.67524 11.4542 6.74236C11.19 6.9791 10.8814 7.1663 10.5449 7.29479C10.7138 7.70344 10.8376 8.13078 10.9131 8.56915ZM10.0426 6.33561C10.6024 6.11773 11 5.57307 11 4.93711C11 4.10986 10.3272 3.43711 9.49997 3.43711C8.84667 3.43711 8.28973 3.85668 8.08439 4.44057C8.3159 4.5793 8.53858 4.73399 8.75074 4.90391C8.76881 4.51208 9.10459 4.18711 9.49997 4.18711C9.90647 4.18711 10.25 4.53061 10.25 4.93711C10.25 5.32423 9.93845 5.65421 9.55767 5.6848C9.73458 5.8914 9.89647 6.1089 10.0426 6.33561Z" fill="#CED5DC"/>
<path d="M4.60066 12.5258C4.60066 12.4313 4.60066 12.3369 4.60066 12.2425C4.60066 12.1631 4.57204 12.131 4.48723 12.1219C4.14402 12.0985 3.80921 12.0104 3.5024 11.8628C3.32218 11.7704 3.30098 11.7272 3.36883 11.5453C3.41441 11.4238 3.46424 11.3032 3.50452 11.1797C3.53208 11.0943 3.57237 11.0873 3.64975 11.1285C3.92475 11.2872 4.23164 11.3898 4.55084 11.4298C4.83318 11.4775 5.12423 11.4354 5.37878 11.3103C5.47953 11.2559 5.56483 11.1792 5.6273 11.0867C5.68977 10.9941 5.72753 10.8886 5.73734 10.7791C5.74715 10.6696 5.72871 10.5596 5.6836 10.4584C5.63849 10.3572 5.56807 10.2679 5.47843 10.1982C5.28805 10.05 5.07313 9.93256 4.84237 9.85068C4.5287 9.73606 4.22992 9.58776 3.95188 9.40868C3.17271 8.89235 3.25858 7.7954 3.99641 7.32226C4.17328 7.2074 4.37037 7.12338 4.5784 7.07414C4.59568 7.07272 4.61247 7.0679 4.62768 7.06C4.64289 7.0521 4.65621 7.04129 4.66678 7.02825C4.67734 7.01522 4.68493 7.00024 4.68906 6.98427C4.69319 6.96831 4.69378 6.9517 4.69077 6.93551C4.68547 6.7346 4.69077 6.54374 4.69077 6.34786C4.69077 6.28256 4.70561 6.2474 4.78194 6.25243C4.94413 6.25243 5.10633 6.25243 5.26959 6.25243C5.34697 6.25243 5.3756 6.28357 5.3756 6.35288C5.3756 6.52064 5.3756 6.6884 5.3756 6.85515C5.3756 7.00382 5.3756 7.00683 5.53143 7.02492C5.80706 7.0554 6.07481 7.13193 6.32226 7.25094C6.44736 7.31221 6.4728 7.37148 6.42191 7.49705C6.37103 7.62262 6.30954 7.76325 6.2576 7.89886C6.22474 7.98325 6.18975 7.99932 6.09752 7.95311C5.73837 7.75627 5.32008 7.67883 4.90915 7.73311C4.47345 7.78736 4.24023 8.07466 4.30596 8.47145C4.32069 8.54211 4.35158 8.60885 4.39645 8.66699C4.44132 8.72513 4.49908 8.77325 4.56568 8.80797C4.83232 8.95791 5.11091 9.0879 5.39892 9.19673C5.69418 9.30957 5.96782 9.46772 6.20884 9.66484C6.38228 9.81119 6.5135 9.99701 6.59011 10.2048C6.66671 10.4125 6.68618 10.6353 6.64666 10.8522C6.55973 11.48 6.15159 11.8447 5.54097 12.0356C5.29503 12.1119 5.32895 12.0566 5.32895 12.3088C5.32895 12.4762 5.32895 12.6436 5.32895 12.8111C5.32895 12.8854 5.30245 12.9205 5.22294 12.9185C5.05651 12.9185 4.89007 12.9185 4.7247 12.9185C4.63565 12.9185 4.60808 12.8834 4.61126 12.805C4.60384 12.7146 4.60066 12.6202 4.60066 12.5258Z" fill="#CED5DC"/>
<path fill-rule="evenodd" clip-rule="evenodd" d="M5 13.5333C6.04691 13.5333 7.05094 13.1174 7.79121 12.3771C8.53149 11.6369 8.94737 10.6328 8.94737 9.58594C8.94737 8.53903 8.53149 7.535 7.79121 6.79473C7.05094 6.05445 6.04691 5.63857 5 5.63857C3.95309 5.63857 2.94906 6.05445 2.20879 6.79473C1.46851 7.535 1.05263 8.53903 1.05263 9.58594C1.05263 10.6328 1.46851 11.6369 2.20879 12.3771C2.94906 13.1174 3.95309 13.5333 5 13.5333ZM8.53553 13.1215C7.59785 14.0592 6.32608 14.5859 5 14.5859C3.67392 14.5859 2.40215 14.0592 1.46447 13.1215C0.526784 12.1838 0 10.912 0 9.58594C0 8.25986 0.526784 6.98809 1.46447 6.0504C2.40215 5.11272 3.67392 4.58594 5 4.58594C6.32608 4.58594 7.59785 5.11272 8.53553 6.0504C9.47322 6.98809 10 8.25986 10 9.58594C10 10.912 9.47322 12.1838 8.53553 13.1215Z" fill="#CED5DC"/>
</svg>
