<svg xmlns="http://www.w3.org/2000/svg" xmlns:xlink="http://www.w3.org/1999/xlink" width="29" height="29" viewBox="0 0 29 29">
  <defs>
    <pattern id="pattern" preserveAspectRatio="xMidYMid slice" width="100%" height="100%" viewBox="0 0 119 79">
      <image width="119" height="79" xlink:href="data:image/png;base64,iVBORw0KGgoAAAANSUhEUgAAAHcAAABPCAMAAADmzqp4AAAAHlBMVEUtKkqlGTH09filGDGgABrr4uX19/r8/f9+foojH0PH8MEVAAAAZUlEQVRoge3ZyQ0DMRADQfq280/YMeyrIaA6gfpqxN2axuVyuae4j6Y9m/Zq2rtp9yYul8u97H6a9m3ar2mSJEnSiVXv5+peqO6j6h7kcrncq271317tC9WeUu1H1V7G5XK5h7h/CSdD37IJ+p8AAAAASUVORK5CYII="/>
    </pattern>
  </defs>
  <circle id="NoPath_-_Copy" data-name="NoPath - Copy" cx="14.5" cy="14.5" r="14.5" fill="url(#pattern)"/>
</svg>
