<svg xmlns="http://www.w3.org/2000/svg" width="20.985" height="26.382" viewBox="0 0 20.985 26.382">
  <g id="Group_336" data-name="Group 336" transform="translate(-1966.766 -278.053)">
    <path id="Path_334" data-name="Path 334" d="M1972.258,300.095v-3.4a1.148,1.148,0,0,0-.869-1.228c-.422-.141-.858-.243-1.285-.368a2.043,2.043,0,0,1-1.7-2.314c.01-.412.042-.823.061-1.235a1.49,1.49,0,0,0-.337-1.02c-.312-.4-.641-.778-.927-1.192a1.91,1.91,0,0,1-.008-2.422c.284-.414.614-.8.927-1.192a1.569,1.569,0,0,0,.347-1.052c-.015-.594-.049-1.189-.018-1.781a1.762,1.762,0,0,1,1.314-1.629c.441-.156.9-.276,1.349-.391a1.775,1.775,0,0,0,1.134-.822c.215-.351.437-.7.681-1.031a1.95,1.95,0,0,1,2.523-.782c.378.131.752.275,1.123.424a1.846,1.846,0,0,0,1.372,0c.514-.189,1.028-.387,1.554-.535a1.641,1.641,0,0,1,1.749.512,6.427,6.427,0,0,1,.825,1.134,2.249,2.249,0,0,0,1.63,1.185,6.371,6.371,0,0,1,.923.261,1.928,1.928,0,0,1,1.479,2.055c0,.469-.037.937-.059,1.406a1.525,1.525,0,0,0,.35,1.05c.313.394.643.777.927,1.192a1.912,1.912,0,0,1-.016,2.422c-.26.376-.558.725-.848,1.079a1.706,1.706,0,0,0-.413,1.237c.028.423.061.846.061,1.269a1.973,1.973,0,0,1-1.571,2.13c-.447.139-.906.244-1.351.389a1.159,1.159,0,0,0-.927,1.288q0,3.435,0,6.871c0,.829-.275,1-1.042.663-1.235-.544-2.469-1.09-3.712-1.617a.711.711,0,0,0-.5.006c-1.284.546-2.559,1.112-3.838,1.669-.588.256-.907.05-.908-.591C1972.256,302.522,1972.258,301.308,1972.258,300.095Zm12.825-16.68c.01-.783-.172-1.04-.921-1.275a8,8,0,0,0-.828-.221,2.99,2.99,0,0,1-2.084-1.535,8.146,8.146,0,0,0-.687-.983.76.76,0,0,0-.894-.261c-.379.128-.763.245-1.129.4a3.093,3.093,0,0,1-2.593-.014c-.333-.148-.687-.249-1.031-.373a.839.839,0,0,0-1.032.319,10.135,10.135,0,0,0-.653.965,2.974,2.974,0,0,1-2.012,1.474,10.791,10.791,0,0,0-1.213.364.727.727,0,0,0-.526.658,4.4,4.4,0,0,0-.011.887,3.369,3.369,0,0,1-.9,3,5.505,5.505,0,0,0-.566.732.906.906,0,0,0,0,1.12c.252.353.525.693.8,1.026a2.781,2.781,0,0,1,.695,2.024c-.027.422-.064.846-.06,1.268a.946.946,0,0,0,.787,1.056,7.688,7.688,0,0,0,.827.225,3.106,3.106,0,0,1,2.231,1.609,6.279,6.279,0,0,0,.532.8.9.9,0,0,0,1.2.374c.423-.138.838-.3,1.254-.463a2.693,2.693,0,0,1,1.945-.012c.418.154.833.32,1.255.462a.917.917,0,0,0,1.251-.389c.277-.378.523-.779.782-1.169a2.542,2.542,0,0,1,1.468-1.064c.462-.131.924-.257,1.385-.393a.923.923,0,0,0,.719-.931,4.847,4.847,0,0,0-.031-.753,3.3,3.3,0,0,1,.885-2.908,5.833,5.833,0,0,0,.587-.759.906.906,0,0,0,0-1.12,11.621,11.621,0,0,0-.717-.919,2.919,2.919,0,0,1-.778-2.268C1985.048,284.055,1985.063,283.735,1985.083,283.415Zm-3.876,19.718v-5.463a2.008,2.008,0,0,1-2.414.226,3.2,3.2,0,0,0-3.044-.006,2.067,2.067,0,0,1-2.361-.136c-.011-.009-.041,0-.064.008V303.1a.986.986,0,0,0,.166-.035c1.016-.445,2.033-.885,3.04-1.348a.482.482,0,0,0,.2-.364c.02-.732.012-1.465.01-2.2a.539.539,0,0,1,.318-.557.51.51,0,0,1,.708.528c.011.744.01,1.488,0,2.231a.352.352,0,0,0,.249.388c.4.161.8.346,1.194.52Z" fill="#fff"/>
    <path id="Path_335" data-name="Path 335" d="M2022.058,319.772a7.222,7.222,0,0,1,6.626,4.439,1.727,1.727,0,0,1,.1.292.506.506,0,0,1-.94.365,1.724,1.724,0,0,1-.109-.251,6.158,6.158,0,1,0,.011,4.68c.026-.063.05-.128.081-.189a.52.52,0,0,1,.656-.287.484.484,0,0,1,.288.649,9.211,9.211,0,0,1-.7,1.411,7.185,7.185,0,1,1-7-11.021C2021.4,319.816,2021.728,319.8,2022.058,319.772Z" transform="translate(-44.784 -38.853)" fill="#fff"/>
    <path id="Path_336" data-name="Path 336" d="M2141.467,395.319c0,.334.006.608,0,.882-.01.368-.222.594-.532.586s-.494-.22-.5-.578c0-1.088,0-2.176,0-3.263a.491.491,0,0,1,.479-.56,6.039,6.039,0,0,1,1.3.045,1.441,1.441,0,0,1,1.17,1.517,1.506,1.506,0,0,1-1.431,1.371C2141.806,395.325,2141.659,395.319,2141.467,395.319Zm.016-1.053c.311.031.618.1.786-.209a.506.506,0,0,0-.011-.436c-.182-.283-.478-.239-.776-.19Z" transform="translate(-161.738 -106.465)" fill="#fff"/>
    <path id="Path_337" data-name="Path 337" d="M2053.044,394.883l.574-1.722a3.523,3.523,0,0,1,.124-.356.5.5,0,0,1,.65-.285.486.486,0,0,1,.3.637c-.237.752-.488,1.5-.735,2.248-.111.336-.225.672-.336,1.008a.593.593,0,0,1-.565.469.571.571,0,0,1-.591-.429c-.377-1.078-.758-2.156-1.123-3.238a.5.5,0,0,1,.326-.716c.279-.087.529.058.653.4.194.537.375,1.079.563,1.618C2052.92,394.61,2052.965,394.7,2053.044,394.883Z" transform="translate(-78.727 -106.561)" fill="#fff"/>
    <path id="Path_338" data-name="Path 338" d="M2112.547,394.668c0,.515,0,1.03,0,1.544,0,.393-.207.629-.525.625s-.5-.228-.5-.608q-.006-1.6,0-3.192c0-.377.2-.608.5-.614s.522.241.525.631C2112.55,393.592,2112.547,394.13,2112.547,394.668Z" transform="translate(-134.803 -106.513)" fill="#fff"/>
    <path id="Path_339" data-name="Path 339" d="M2210.336,417.713a.526.526,0,0,1-.509.532.515.515,0,0,1-.5-.5.5.5,0,0,1,.469-.524A.5.5,0,0,1,2210.336,417.713Z" transform="translate(-225.894 -129.608)" fill="#fff"/>
  </g>
</svg>
